[
  {
    "objectID": "nodes/index.html",
    "href": "nodes/index.html",
    "title": "Nodes",
    "section": "",
    "text": "Eine Übersicht über die Veranstaltungen und Nodes ist unter https://otelo.or.at/standort/ried-im-innkreis zu sehen."
  },
  {
    "objectID": "nodes/index.html#würfelschänke",
    "href": "nodes/index.html#würfelschänke",
    "title": "Nodes",
    "section": "‘Würfelschänke’",
    "text": "‘Würfelschänke’\nDie Würfelschänke lädt alle ein vorbeizukommen, sei es als Anfänger oder eingefleischter Brettspiel Nerd!\nDabei kann jeder auch gerne sein eigenes Spiel mitnehmen, alles kein Problem, sofern ihr es erklären könnt!\nVon den Kategorien her war auch schon alles vorhanden, von Karten- und Familienspielen bis hin zu Expertenspielen ebenso wie von Strategie/Aufbau bis hin zu Dungeon Crawlern!\nIhr könnt immer gerne spontan vorbeikommen oder auch zur besseren Planung anmelden."
  },
  {
    "objectID": "nodes/index.html#otelo-in-bewegung",
    "href": "nodes/index.html#otelo-in-bewegung",
    "title": "Nodes",
    "section": "‘OTELO in Bewegung’",
    "text": "‘OTELO in Bewegung’\nSpikeball, Volleyball und anders.\nIhr könnt immer gerne spontan vorbeikommen oder auch zur besseren Planung anmelden."
  },
  {
    "objectID": "verein/index.html",
    "href": "verein/index.html",
    "title": "Verein",
    "section": "",
    "text": "Der OTELO-Ried e.V. ist ein “offenes Technologielabor” in der Bezirkshauptstadt Ried im Innkreis. Auf dieser Website findest du Informationen über unseren Verein und eine Übersicht über unsere Projekte. Der Vereinszweck soll unter anderem durch folgende Maßnahmen erfüllt werden:\n\nZur Verfügung stellen eines offenen Raums für Jung und Alt.\nHilfe bei der Durchführung von OTELO-Workshops und organisieren von OTELO-Nodes.\nInformationsaustausch und Vernetzung von Personen, Gruppen und Institutionen, mit gleicher oder ähnlicher Zielsetzung wie wir sie verfolgen."
  },
  {
    "objectID": "pitch/index.html#otelo-ried",
    "href": "pitch/index.html#otelo-ried",
    "title": "Pitch",
    "section": "OTELO-Ried",
    "text": "OTELO-Ried\n\nVorarbeiten seit 2019\nOTELO Aktivitäten seit 2020\nVereinsgründung 2023"
  },
  {
    "objectID": "pitch/index.html#otelo-idee",
    "href": "pitch/index.html#otelo-idee",
    "title": "Pitch",
    "section": "OTELO-Idee",
    "text": "OTELO-Idee\n\nIdee\nFrei und Offene Räume"
  },
  {
    "objectID": "pitch/index.html#status",
    "href": "pitch/index.html#status",
    "title": "Pitch",
    "section": "Status",
    "text": "Status\n\nSuche nach einem Raum\nWahrscheinliche Lösung\n\nRaum im “Makerspace Ried / Innovationsraum”"
  },
  {
    "objectID": "pitch/index.html#ende",
    "href": "pitch/index.html#ende",
    "title": "Pitch",
    "section": "Ende",
    "text": "Ende\n\n\n\nhttps://otelo-ried.codeberg.page"
  },
  {
    "objectID": "mitmachen/index.html",
    "href": "mitmachen/index.html",
    "title": "Mitmachen",
    "section": "",
    "text": "Du möchtest dich aktiv im Verein einbringen und überlegst Mitglied zu werden? Wenn Du als Mensch oder gemeinnützige Organisation dabei sein willst, unterstütze den Verein und die Community gerne als stimmberechtigtes Mitglied. Wir freuen uns auf Deinen Antrag:\nComing soon …"
  },
  {
    "objectID": "mitmachen/index.html#alle-können-mitmachen",
    "href": "mitmachen/index.html#alle-können-mitmachen",
    "title": "Mitmachen",
    "section": "",
    "text": "Du möchtest dich aktiv im Verein einbringen und überlegst Mitglied zu werden? Wenn Du als Mensch oder gemeinnützige Organisation dabei sein willst, unterstütze den Verein und die Community gerne als stimmberechtigtes Mitglied. Wir freuen uns auf Deinen Antrag:\nComing soon …"
  },
  {
    "objectID": "mitmachen/index.html#du-kannst-uns-auch-finanziell-unterstützen.",
    "href": "mitmachen/index.html#du-kannst-uns-auch-finanziell-unterstützen.",
    "title": "Mitmachen",
    "section": "Du kannst uns auch finanziell unterstützen.",
    "text": "Du kannst uns auch finanziell unterstützen.\nUnsere Bankverbindung:\n\nBank: comming soon …\nAdresse: comming soon …\nIBAN: comming soon …"
  },
  {
    "objectID": "index.html",
    "href": "index.html",
    "title": "OTELO",
    "section": "",
    "text": "Frust raus, Lust rein.\nDie Otelo Vision\nOtelos sind inspirierende Gemeinschafts-(T)Räume, die einladen, Visionen und Ideen miteinander zu teilen und zu verwirklichen. Sie sind Orte der offenen Begegnung und herzlichen Beziehung. Sie bieten Menschen, unabhängig von Alter, Herkunft oder Zugehörigkeit, freien Raum, in dem Offenheit und das Teilen von Wissen und Erfahrungen im Vordergrund stehen. Die NutzerInnen der Otelos gestalten diese Räume gemeinsam. Sie verstehen sich als GastgeberInnen für das Neue. Sie entwickeln inspirierende Formate. Die kulturelle Basis dafür ist die Otelo-Charta.\nDie Otelos und ihre NutzerInnen weben im Rahmen des Otelo-Netzwerkes gemeinsam an gesellschaftlichen Innovationsnetzen für die Zukunft, indem sie neue, kooperative Strukturen schaffen. Sie kooperieren dabei mit den sie umgebenden Systemen für eine positive Entwicklung der Regionen, ohne sich in Abhängigkeiten zu begeben.\nNeue Otelos bilden weitere Netzknoten und werden damit Teil des Gestaltungsprozesses.\nOTELO Standorte und Nodes\nOTELO ist dezentral organisiert. Es gibt verschiedene Standorte und an jedem Standort verschiedene Nodes. Die meisten Standorte finden sich im Raum Oberösterreich. Ein Übersicht ist unter den Links\n\nAlle Standorte\nAlle Nodes\n\nzu finden.\nOTELO-Ried\nOTELO-Ried wurde im Jahr 2023 etabliert. Mehr Infos unter Verein."
  }
]